<svg width="14" height="14" viewBox="0 0 14 14" fill="none" xmlns="http://www.w3.org/2000/svg">
<path fill-rule="evenodd" clip-rule="evenodd" d="M11.7133 2.28664C10.0395 0.553597 7.56079 -0.141443 5.22993 0.46866C2.89906 1.07876 1.07876 2.89906 0.46866 5.22993C-0.141443 7.56079 0.553597 10.0395 2.28664 11.7133C3.96047 13.4464 6.43916 14.1414 8.77002 13.5313C11.1009 12.9212 12.9212 11.1009 13.5313 8.77002C14.1414 6.43916 13.4464 3.96047 11.7133 2.28664ZM9.47331 4.52664C9.34813 4.40043 9.17773 4.32944 8.99997 4.32944C8.82222 4.32944 8.65182 4.40043 8.52664 4.52664L6.99997 6.05997L5.47331 4.52664C5.21189 4.26523 4.78806 4.26523 4.52664 4.52664C4.26523 4.78806 4.26523 5.21189 4.52664 5.47331L6.05997 6.99997L4.52664 8.52664C4.40043 8.65182 4.32944 8.82222 4.32944 8.99997C4.32944 9.17773 4.40043 9.34813 4.52664 9.47331C4.65182 9.59952 4.82222 9.67051 4.99997 9.67051C5.17773 9.67051 5.34813 9.59952 5.47331 9.47331L6.99997 7.93997L8.52664 9.47331C8.65182 9.59952 8.82222 9.67051 8.99997 9.67051C9.17773 9.67051 9.34813 9.59952 9.47331 9.47331C9.59952 9.34813 9.67051 9.17773 9.67051 8.99997C9.67051 8.82222 9.59952 8.65182 9.47331 8.52664L7.93997 6.99997L9.47331 5.47331C9.59952 5.34813 9.67051 5.17773 9.67051 4.99997C9.67051 4.82222 9.59952 4.65182 9.47331 4.52664ZM4.03966 11.4405C6.15601 12.8527 8.97523 12.5734 10.7733 10.7733C11.7764 9.77435 12.3381 8.41562 12.3333 6.99997C12.3313 4.45569 10.5324 2.2671 8.03665 1.77256C5.54089 1.27801 3.04333 2.61524 2.07125 4.9665C1.09917 7.31776 1.9233 10.0283 4.03966 11.4405Z" fill="#FF6969"/>
</svg>
